epoch: 0	train ppl: 641.3410119161416	val ppl: 394.6668743660388	best val: 394.6668743660388	time (s) spent in epoch: 208.30784702301025
epoch: 1	train ppl: 395.9820000812074	val ppl: 302.8534100392949	best val: 302.8534100392949	time (s) spent in epoch: 208.29029822349548
epoch: 2	train ppl: 323.18113604316443	val ppl: 259.683382308107	best val: 259.683382308107	time (s) spent in epoch: 207.73550844192505
epoch: 3	train ppl: 282.4261905699003	val ppl: 232.82241024936127	best val: 232.82241024936127	time (s) spent in epoch: 206.1533522605896
epoch: 4	train ppl: 253.01330068532147	val ppl: 214.15996152434613	best val: 214.15996152434613	time (s) spent in epoch: 207.09576296806335
epoch: 5	train ppl: 231.10777701138528	val ppl: 197.3333615304497	best val: 197.3333615304497	time (s) spent in epoch: 208.6705014705658
epoch: 6	train ppl: 212.90693552543914	val ppl: 185.65055620491668	best val: 185.65055620491668	time (s) spent in epoch: 207.84592628479004
epoch: 7	train ppl: 197.99877212689378	val ppl: 174.9116297025277	best val: 174.9116297025277	time (s) spent in epoch: 207.19917011260986
epoch: 8	train ppl: 185.0809310217221	val ppl: 165.00987622892532	best val: 165.00987622892532	time (s) spent in epoch: 206.40066194534302
epoch: 9	train ppl: 174.00913263852868	val ppl: 157.52357304638872	best val: 157.52357304638872	time (s) spent in epoch: 207.93165946006775
epoch: 10	train ppl: 164.18704417491298	val ppl: 150.83278397517776	best val: 150.83278397517776	time (s) spent in epoch: 206.87238383293152
epoch: 11	train ppl: 155.36946834923427	val ppl: 145.07548467062006	best val: 145.07548467062006	time (s) spent in epoch: 208.31774735450745
epoch: 12	train ppl: 148.0480368408461	val ppl: 140.70844230332102	best val: 140.70844230332102	time (s) spent in epoch: 207.62053513526917
epoch: 13	train ppl: 140.74037322161462	val ppl: 135.84354622779898	best val: 135.84354622779898	time (s) spent in epoch: 206.6324508190155
epoch: 14	train ppl: 134.2819462677066	val ppl: 132.10033859047275	best val: 132.10033859047275	time (s) spent in epoch: 206.29223132133484
epoch: 15	train ppl: 128.59508199390137	val ppl: 129.2816659246091	best val: 129.2816659246091	time (s) spent in epoch: 206.283766746521
epoch: 16	train ppl: 123.20592152935954	val ppl: 126.089791572154	best val: 126.089791572154	time (s) spent in epoch: 206.64763474464417
epoch: 17	train ppl: 118.54960045193525	val ppl: 123.77440693992644	best val: 123.77440693992644	time (s) spent in epoch: 207.70735812187195
epoch: 18	train ppl: 113.94465505948604	val ppl: 121.16723810271482	best val: 121.16723810271482	time (s) spent in epoch: 207.42730712890625
epoch: 19	train ppl: 109.81275700283692	val ppl: 119.2405275981394	best val: 119.2405275981394	time (s) spent in epoch: 206.29046845436096
epoch: 20	train ppl: 105.84611620154445	val ppl: 117.88736633651133	best val: 117.88736633651133	time (s) spent in epoch: 207.90828609466553
epoch: 21	train ppl: 102.24623993920513	val ppl: 116.55290664579547	best val: 116.55290664579547	time (s) spent in epoch: 205.3571846485138
epoch: 22	train ppl: 98.94447416570135	val ppl: 115.38362500100038	best val: 115.38362500100038	time (s) spent in epoch: 206.1270775794983
epoch: 23	train ppl: 95.53119008404194	val ppl: 114.17827040978572	best val: 114.17827040978572	time (s) spent in epoch: 206.29314708709717
epoch: 24	train ppl: 92.38619242243051	val ppl: 113.78622171868518	best val: 113.78622171868518	time (s) spent in epoch: 206.2978172302246
epoch: 25	train ppl: 89.54514974245006	val ppl: 112.67838943126839	best val: 112.67838943126839	time (s) spent in epoch: 208.22755408287048
epoch: 26	train ppl: 86.56114618040316	val ppl: 112.76173946015633	best val: 112.67838943126839	time (s) spent in epoch: 207.20790362358093
epoch: 27	train ppl: 84.02330148583567	val ppl: 111.91155369032013	best val: 111.91155369032013	time (s) spent in epoch: 205.5524160861969
epoch: 28	train ppl: 81.46726416391223	val ppl: 111.1687705767652	best val: 111.1687705767652	time (s) spent in epoch: 206.5995478630066
epoch: 29	train ppl: 79.1117346381273	val ppl: 111.7371597803771	best val: 111.1687705767652	time (s) spent in epoch: 206.70560336112976
epoch: 30	train ppl: 76.68631014202491	val ppl: 111.01208887959254	best val: 111.01208887959254	time (s) spent in epoch: 207.99085807800293
epoch: 31	train ppl: 74.6242071543136	val ppl: 111.00902324722031	best val: 111.00902324722031	time (s) spent in epoch: 207.30246710777283
epoch: 32	train ppl: 72.53161422559172	val ppl: 111.19086002134958	best val: 111.00902324722031	time (s) spent in epoch: 207.7523467540741
epoch: 33	train ppl: 70.4788897384767	val ppl: 110.7955001207222	best val: 110.7955001207222	time (s) spent in epoch: 207.6117069721222
epoch: 34	train ppl: 68.48208676667933	val ppl: 111.35412665066838	best val: 110.7955001207222	time (s) spent in epoch: 207.5446379184723
epoch: 35	train ppl: 66.65977910491509	val ppl: 111.87364096505621	best val: 110.7955001207222	time (s) spent in epoch: 208.13578629493713
epoch: 36	train ppl: 64.75399844929927	val ppl: 112.32226031416263	best val: 110.7955001207222	time (s) spent in epoch: 208.48443269729614
epoch: 37	train ppl: 63.03405937502553	val ppl: 112.37725737213817	best val: 110.7955001207222	time (s) spent in epoch: 210.51933789253235
epoch: 38	train ppl: 62.29965646878352	val ppl: 112.65148401571342	best val: 110.7955001207222	time (s) spent in epoch: 212.20979762077332
epoch: 39	train ppl: 59.7742060703463	val ppl: 113.86184148264289	best val: 110.7955001207222	time (s) spent in epoch: 212.49858283996582
