epoch: 0	train ppl: 568.183549813891	val ppl: 308.10634488127016	best val: 308.10634488127016	time (s) spent in epoch: 195.56093907356262
epoch: 1	train ppl: 305.6559455958475	val ppl: 226.23934737549015	best val: 226.23934737549015	time (s) spent in epoch: 196.20963144302368
epoch: 2	train ppl: 244.21054923799295	val ppl: 198.1922001380683	best val: 198.1922001380683	time (s) spent in epoch: 195.3690311908722
epoch: 3	train ppl: 209.19814210408475	val ppl: 174.64895722938707	best val: 174.64895722938707	time (s) spent in epoch: 195.6519877910614
epoch: 4	train ppl: 185.11288672197344	val ppl: 166.7570376736913	best val: 166.7570376736913	time (s) spent in epoch: 197.68600964546204
epoch: 5	train ppl: 167.66405897327772	val ppl: 162.32741073049627	best val: 162.32741073049627	time (s) spent in epoch: 196.69267988204956
epoch: 6	train ppl: 153.58913558826495	val ppl: 147.6920613984609	best val: 147.6920613984609	time (s) spent in epoch: 195.30609369277954
epoch: 7	train ppl: 142.68959988116316	val ppl: 144.59781499406554	best val: 144.59781499406554	time (s) spent in epoch: 194.89831805229187
epoch: 8	train ppl: 133.2518627689613	val ppl: 135.78972927461555	best val: 135.78972927461555	time (s) spent in epoch: 198.52619814872742
epoch: 9	train ppl: 125.0987992520655	val ppl: 129.34228373047682	best val: 129.34228373047682	time (s) spent in epoch: 195.15330147743225
epoch: 10	train ppl: 118.4877151076599	val ppl: 127.72132195146875	best val: 127.72132195146875	time (s) spent in epoch: 198.34773778915405
epoch: 11	train ppl: 112.53760484931924	val ppl: 124.10833440447713	best val: 124.10833440447713	time (s) spent in epoch: 194.93364095687866
epoch: 12	train ppl: 107.31604116342507	val ppl: 121.56245166396529	best val: 121.56245166396529	time (s) spent in epoch: 195.18978834152222
epoch: 13	train ppl: 102.27765301789331	val ppl: 118.97317348243085	best val: 118.97317348243085	time (s) spent in epoch: 195.10208797454834
epoch: 14	train ppl: 97.65690343412385	val ppl: 121.39965730303359	best val: 118.97317348243085	time (s) spent in epoch: 197.40265583992004
epoch: 15	train ppl: 90.89090864856718	val ppl: 114.85993596638119	best val: 114.85993596638119	time (s) spent in epoch: 195.94972133636475
epoch: 16	train ppl: 82.5410293832741	val ppl: 112.63741324054551	best val: 112.63741324054551	time (s) spent in epoch: 196.00599575042725
epoch: 17	train ppl: 75.12145487548223	val ppl: 110.28701144957725	best val: 110.28701144957725	time (s) spent in epoch: 198.5643880367279
epoch: 18	train ppl: 70.108853790537	val ppl: 108.61631823271618	best val: 108.61631823271618	time (s) spent in epoch: 198.5447072982788
epoch: 19	train ppl: 67.3372593211585	val ppl: 106.79735742776559	best val: 106.79735742776559	time (s) spent in epoch: 198.03381752967834
epoch: 20	train ppl: 66.44847521955813	val ppl: 104.96718065838972	best val: 104.96718065838972	time (s) spent in epoch: 197.65153002738953
epoch: 21	train ppl: 66.41921996834678	val ppl: 104.32455103542667	best val: 104.32455103542667	time (s) spent in epoch: 198.73776984214783
epoch: 22	train ppl: 66.23896787099056	val ppl: 104.16818881937357	best val: 104.16818881937357	time (s) spent in epoch: 194.89147472381592
epoch: 23	train ppl: 66.30323052919147	val ppl: 104.05318342993046	best val: 104.05318342993046	time (s) spent in epoch: 197.4147162437439
epoch: 24	train ppl: 66.27673015831529	val ppl: 104.0368958689932	best val: 104.0368958689932	time (s) spent in epoch: 200.35203289985657
epoch: 25	train ppl: 66.1633845825061	val ppl: 104.03632229999772	best val: 104.03632229999772	time (s) spent in epoch: 197.9434356689453
epoch: 26	train ppl: 66.28074077910496	val ppl: 104.03598401861304	best val: 104.03598401861304	time (s) spent in epoch: 197.9882414340973
epoch: 27	train ppl: 66.30000474327167	val ppl: 104.03588291237918	best val: 104.03588291237918	time (s) spent in epoch: 197.48624920845032
epoch: 28	train ppl: 66.31713175986047	val ppl: 104.03590889761675	best val: 104.03588291237918	time (s) spent in epoch: 194.51536560058594
epoch: 29	train ppl: 66.2615041150922	val ppl: 104.03591267728828	best val: 104.03588291237918	time (s) spent in epoch: 196.6826033592224
epoch: 30	train ppl: 66.1630594391332	val ppl: 104.03590937007574	best val: 104.03588291237918	time (s) spent in epoch: 194.5972068309784
epoch: 31	train ppl: 66.22001645090387	val ppl: 104.03591220482936	best val: 104.03588291237918	time (s) spent in epoch: 195.8730239868164
epoch: 32	train ppl: 66.28906653598048	val ppl: 104.03591362220611	best val: 104.03588291237918	time (s) spent in epoch: 196.64789605140686
epoch: 33	train ppl: 66.25220935602678	val ppl: 104.03591362220611	best val: 104.03588291237918	time (s) spent in epoch: 199.49361896514893
epoch: 34	train ppl: 66.16487562403351	val ppl: 104.03591362220611	best val: 104.03588291237918	time (s) spent in epoch: 198.20490097999573
epoch: 35	train ppl: 66.26761621273276	val ppl: 104.03591362220611	best val: 104.03588291237918	time (s) spent in epoch: 197.176664352417
epoch: 36	train ppl: 66.2027550577392	val ppl: 104.03591362220611	best val: 104.03588291237918	time (s) spent in epoch: 195.95262217521667
epoch: 37	train ppl: 66.4844440917175	val ppl: 104.03591362220611	best val: 104.03588291237918	time (s) spent in epoch: 195.83138465881348
epoch: 38	train ppl: 66.36987076498967	val ppl: 104.03591362220611	best val: 104.03588291237918	time (s) spent in epoch: 196.53371238708496
epoch: 39	train ppl: 66.2705901324025	val ppl: 104.03591362220611	best val: 104.03588291237918	time (s) spent in epoch: 197.099928855896
